INSEE,nom_orig,Commune,distinction,annee
74014,Araches la frasse,Arâches-la-Frasse,1,2021
74036,Bluffy,Bluffy,1,2021
69034,Caluire et Cuire,Caluire-et-Cuire,3,2021
63244,Chambaron sur Morge,Chambaron sur Morge,1,2021
01167,Garnerans,Garnerans,1,2021
74139,Habère Lullin,Habère-Lullin,1,2021
26106,La Coucourde,La Coucourde,1,2021
73154,Mercury,Mercury,1,2021
38261,Morestel,Morestel,1,2021
38384,Saint Étienne de Saint Geoirs,Saint-Étienne-de-Saint-Geoirs,2,2021
38400,Saint Jean de Moirans,Saint-Jean-de-Moirans,2,2021
74236,Saint Gervais les Bains,Saint-Gervais-les-Bains,3,2021
03267,Saulcet,Saulcet,1,2021
38565,Voreppe,Voreppe,1,2021
03321,Yzeure,Yzeure,2,2021
71105,Charnay les macon,Charnay-lès-Mâcon,2,2021
39198,Dole,Dole,1,2021
89198,Gurgy,Gurgy,1,2021
39240,Le Frasnois,Le Frasnois,1,2021
70309,Loulans-Verchamp,Loulans-Verchamp,1,2021
25448,Pelousey,Pelousey,1,2021
70483,Scye,Scye,1,2021
25632,Voujeaucourt,Voujeaucourt,1,2021
35023,Bédée,Bédée,2,2021
56121,Lorient,Lorient,5,2021
29170,Plomelin,Plomelin,1,2021
56251,Theix-Noyalo,Theix-Noyalo,1,2021
44036,Chateaubriant,Châteaubriant,4,2021
72095,Coulaines,Coulaines,1,2021
44113,44Nozay,Nozay,1,2021
44131,Pornic,Pornic,2,2021
41025,Bracieux,Bracieux,1,2021
37034,Braslou,Braslou,1,2021
28064,Bû,Bû,1,2021
45224,45Neuville aux Bois,Neuville-aux-Bois,1,2021
45258,Puiseaux,Puiseaux,1,2021
45308,Semoy,Semoy,1,2021
41295,41Vineuil,Vineuil,2,2021
55079,Brillon en Barrois,Brillon-en-Barrois,1,2021
88465,Capavenir-Vosges,Capavenir Vosges,1,2021
54184,Essey-lès-Nancy,Essey-lès-Nancy,3,2021
57201,Etting,Etting,3,2021
67180,Haguenau,Haguenau,3,2021
57332,Hombourg Haut,Hombourg-Haut,1,2021
54329,Lunéville,Lunéville,1,2021
57447,57Marly,Marly,2,2021
68286,Rosenau,Rosenau,3,2021
68334,Thann,Thann,2,2021
68348,Vieux-Thann,Vieux-Thann,3,2021
62034,Annequin,Annequin,1,2021
59155,Coudekerque-Branche,Coudekerque-Branche,2,2021
59327,Lallaing,Lallaing,2,2021
80533,Mers-les-Bains,Mers-les-Bains,1,2021
62765,62Saint Omer,Saint-Omer,2,2021
59597,Tilloy lez Cambrai,Tilloy-lez-Cambrai,1,2021
78007,78Aigremont,Aigremont,1,2021
77037,77Bois le Roi,Bois-le-Roi,2,2021
91097,Boussy Saint Antoine,Boussy-Saint-Antoine,2,2021
77053,Brie Comte Robert,Brie-Comte-Robert,3,2021
94018,Charenton le Pont,Charenton-le-Pont,1,2021
77118,Claye-Souilly,Claye-Souilly,1,2021
93029,Drancy,Drancy,1,2021
91272,Gif sur Yvette,Gif-sur-Yvette,5,2021
91286,91Grigny,Grigny,1,2021
95287,Grisy les Plâtres,Grisy-les-Plâtres,1,2021
78644,La Verrière,La Verrière,1,2021
92060,Le Plessis Robinson,Le Plessis-Robinson,4,2021
91338,Limours,Limours,1,2021
77077,77Chambry,Chambry,2,2021
95369,Margency,Margency,1,2021
78402,Mézières sur Seine,Mézières-sur-Seine,2,2021
91477,Palaiseau,Palaiseau,2,2021
92062,Puteaux,Puteaux,4,2021
77390,Roissy en Brie,Roissy-en-Brie,2,2021
94067,Saint Mandé,Saint-Mandé,3,2021
95582,Sannois,Sannois,1,2021
95598,Soisy sous Montmorency,Soisy-sous-Montmorency,1,2021
92075,Vanves,Vanves,2,2021
78642,Verneuil sur Seine,Verneuil-sur-Seine,1,2021
92044,Levallois Perret,Levallois-Perret,2,2021
14102,Le Breuil en Auge,Le Breuil-en-Auge,1,2021
76321,Les Grandes Ventes,Les Grandes-Ventes,2,2021
76675,Sierville,Sierville,3,2021
14699,Touques,Touques,1,2021
79003,Aiffres,Aiffres,1,2021
47021,Barbaste,Barbaste,1,2021
64147,Briscous,Briscous,2,2021
64160,Cambo les Bains,Cambo-les-Bains,1,2021
87032,87Chalus,Châlus,1,2021
33199,Gujan Mestras,Gujan-Mestras,2,2021
33238,Léognan,Léognan,3,2021
33376,Saint Aubin de Médoc,Saint-Aubin-de-Médoc,3,2021
23195,Saint Fiel,Saint-Fiel,2,2021
17461,Vaux sur Mer,Vaux-sur-Mer,1,2021
82125,Montech,Montech,2,2021
31433,Portet sur Garonne,Portet-sur-Garonne,2,2021
66148,Port-Vendres,Port-Vendres,3,2021
66172,Saint Estève,Saint-Estève,3,2021
30294,Saint Privat des Vieux,Saint-Privat-des-Vieux,2,2021
30014,Arpaillargues et Aureillac,Arpaillargues-et-Aureillac,1,2021
46042,Cahors,Cahors,2,2021
34057,Castelnau le Lez,Castelnau-le-Lez,2,2021
34123,Juvignac,Juvignac,2,2021
82079,Labastide Saint Pierre,Labastide-Saint-Pierre,2,2021
34135,Lespignan,Lespignan,1,2021
13026,Chateauneuf les Martigues,Châteauneuf-les-Martigues,2,2021
83067,Gonfaron,Gonfaron,2,2021
06150,La Turbie,La Turbie,2,2021
05163,Le Sauze du Lac,Le Sauze-du-Lac,1,2021
13071,Les Pennes Mirabeau,Les Pennes-Mirabeau,2,2021
13054,Marignane,Marignane,2,2021
06105,Roquefort les pins,Roquefort-les-Pins,3,2021
13086,Roquevaire,Roquevaire,2,2021
13105,Sénas,Sénas,2,2021
13113,Vénelles,Venelles,3,2021
