INSEE,PMUN,COM
97501,585,Miquelon-Langlade
97502,5400,Saint-Pierre
97701,10124,Saint-Barthélemy
97801,34065,Saint-Martin
98801,867,Belep
98802,3315,Boulouparis
98803,5531,Bourail
98804,3701,Canala
98805,35873,Dumbéa
98806,712,Farino
98807,2454,Hienghène
98808,3955,Houaïlou
98809,2037,L'Île-des-Pins
98810,1803,Kaala-Gomen
98811,8144,Koné
98812,3981,Koumac
98813,3552,La Foa
98814,9195,Lifou
98815,5757,Maré
98816,681,Moindou
98817,27620,Le Mont-Dore
98818,94285,Nouméa
98819,2118,Ouégoa
98820,3401,Ouvéa
98821,24563,Païta
98822,5006,Poindimié
98823,2420,Ponérihouen
98824,2144,Pouébo
98825,2752,Pouembout
98826,1435,Poum
98827,2802,Poya
98828,572,Sarraméa
98829,2524,Thio
98830,2380,Touho
98831,2856,Voh
98832,1667,Yaté
98833,1304,Kouaoua
98711,811,Anaa
98712,10243,Arue
98713,1664,Arutua
98714,10549,Bora-Bora
98715,29506,Faaa
98716,1637,Fakarava
98717,296,Fangatau
98718,612,Fatu-Hiva
98719,1535,Gambier
98720,1258,Hao
98721,275,Hikueru
98722,10033,Hitiaa O Te Ra
98723,2243,Hiva-Oa
98724,6075,Huahine
98725,14763,Mahina
98726,1508,Makemo
98727,1141,Manihi
98728,1286,Maupiti
98729,17816,Moorea-Maiao
98730,284,Napuka
98731,2951,Nuku-Hiva
98732,295,Nukutavake
98733,13021,Paea
98734,11680,Papara
98735,26926,Papeete
98736,14209,Pirae
98737,163,Pukapuka
98738,28103,Punaauia
98739,903,Raivavae
98740,3657,Rangiroa
98741,507,Rapa
98742,587,Reao
98743,872,Rimatara
98744,2466,Rurutu
98745,5234,Tahaa
98746,653,Tahuata
98747,12701,Taiarapu-Est
98748,8078,Taiarapu-Ouest
98749,1175,Takaroa
98750,4792,Taputapuatea
98751,259,Tatakoto
98752,10254,Teva I Uta
98753,2217,Tubuai
98754,3721,Tumaraa
98755,336,Tureia
98756,674,Ua-Huka
98757,2213,Ua-Pou
98758,3736,Uturoa
98611,1950,Alo
98612,1275,Sigavu
98613,8333,Uvea
97601,5192,Acoua
97602,13989,Bandraboua
97603,10282,Bandrele
97604,6189,Bouéni
97605,8295,Chiconi
97606,8920,Chirongui
97607,15848,Dembeni
97608,17831,Dzaoudzi
97609,5507,Kani-Kéli
97610,32156,Koungou
97611,71437,Mamoudzou
97612,7705,Mtsamboro
97613,6432,M'Tsangamouji
97614,10203,Ouangani
97615,11442,Pamandzi
97616,11156,Sada
97617,13934,Tsingoni
